//import org.mule.MessageExchangePattern
package model
import org.mule.MessageExchangePattern;
import model.Submission;

global org.mule.module.bpm.MessageService mule;

// declare any global variables here

dialect "mvel"

declare Submission
 	@role('event')
end

rule "Bob Rule"
		lock-on-active
   when
      $submission : Submission ( name == "Bob" ) 
   
   then
		modify($submission) {setName("Bob the Baby")}
		System.out.println("Printing From Bob Rule: " +$submission.getName())   
end

rule "Billy Rule"
		lock-on-active
   when
      $submission : Submission ( name == "Billy" ) 
   
   then
		modify($submission) {setName("Billy the Kid")}
		System.out.println("Printing From Billy Rule: " +$submission.getName())   
end

